Unit Project 02
…
Duplicates mess up summary stats and plots because they count one
observation multiple times, which increases the size of the sample and
creates flaws with in other summaries.

penguins_dup <- penguins_clean %>%
  bind_rows(slice_sample(penguins_clean, n = 30, replace = TRUE))

nrow(penguins_dup)

## [1] 363

distinct(penguins_dup)

## # A tibble: 333 × 8
##    species island    bill_length_mm bill_depth_mm flipper_length_mm body_mass_g
##    <fct>   <fct>              <dbl>         <dbl>             <int>       <int>
##  1 Adelie  Torgersen           39.1          18.7               181        3750
##  2 Adelie  Torgersen           39.5          17.4               186        3800
##  3 Adelie  Torgersen           40.3          18                 195        3250
##  4 Adelie  Torgersen           36.7          19.3               193        3450
##  5 Adelie  Torgersen           39.3          20.6               190        3650
##  6 Adelie  Torgersen           38.9          17.8               181        3625
##  7 Adelie  Torgersen           39.2          19.6               195        4675
##  8 Adelie  Torgersen           41.1          17.6               182        3200
##  9 Adelie  Torgersen           38.6          21.2               191        3800
## 10 Adelie  Torgersen           34.6          21.1               198        4400
## # ℹ 323 more rows
## # ℹ 2 more variables: sex <fct>, year <int>

Question 3

The data frame contains three columns

 penguins_clean %>% select(species, island, sex, where(is.numeric))

## # A tibble: 333 × 8
##    species island    sex    bill_length_mm bill_depth_mm flipper_length_mm
##    <fct>   <fct>     <fct>           <dbl>         <dbl>             <int>
##  1 Adelie  Torgersen male             39.1          18.7               181
##  2 Adelie  Torgersen female           39.5          17.4               186
##  3 Adelie  Torgersen female           40.3          18                 195
##  4 Adelie  Torgersen female           36.7          19.3               193
##  5 Adelie  Torgersen male             39.3          20.6               190
##  6 Adelie  Torgersen female           38.9          17.8               181
##  7 Adelie  Torgersen male             39.2          19.6               195
##  8 Adelie  Torgersen female           41.1          17.6               182
##  9 Adelie  Torgersen male             38.6          21.2               191
## 10 Adelie  Torgersen male             34.6          21.1               198
## # ℹ 323 more rows
## # ℹ 2 more variables: body_mass_g <int>, year <int>

Question 4

penguins_clean %>% select(starts_with("bill"))

## # A tibble: 333 × 2
##    bill_length_mm bill_depth_mm
##             <dbl>         <dbl>
##  1           39.1          18.7
##  2           39.5          17.4
##  3           40.3          18  
##  4           36.7          19.3
##  5           39.3          20.6
##  6           38.9          17.8
##  7           39.2          19.6
##  8           41.1          17.6
##  9           38.6          21.2
## 10           34.6          21.1
## # ℹ 323 more rows

penguins_clean %>% select(ends_with("mm"))

## # A tibble: 333 × 3
##    bill_length_mm bill_depth_mm flipper_length_mm
##             <dbl>         <dbl>             <int>
##  1           39.1          18.7               181
##  2           39.5          17.4               186
##  3           40.3          18                 195
##  4           36.7          19.3               193
##  5           39.3          20.6               190
##  6           38.9          17.8               181
##  7           39.2          19.6               195
##  8           41.1          17.6               182
##  9           38.6          21.2               191
## 10           34.6          21.1               198
## # ℹ 323 more rows

penguins_clean %>% select(matches("bil.|flip"))

## # A tibble: 333 × 3
##    bill_length_mm bill_depth_mm flipper_length_mm
##             <dbl>         <dbl>             <int>
##  1           39.1          18.7               181
##  2           39.5          17.4               186
##  3           40.3          18                 195
##  4           36.7          19.3               193
##  5           39.3          20.6               190
##  6           38.9          17.8               181
##  7           39.2          19.6               195
##  8           41.1          17.6               182
##  9           38.6          21.2               191
## 10           34.6          21.1               198
## # ℹ 323 more rows
…
penguins_clean %>% group_by(species) %>% summarize(across(where(is.numeric), mean))

## # A tibble: 3 × 6
##   species   bill_length_mm bill_depth_mm flipper_length_mm body_mass_g  year
##   <fct>              <dbl>         <dbl>             <dbl>       <dbl> <dbl>
## 1 Adelie              38.8          18.3              190.       3706. 2008.
## 2 Chinstrap           48.8          18.4              196.       3733. 2008.
## 3 Gentoo              47.6          15.0              217.       5092. 2008.

Question 6

penguins_clean %>% mutate(bill_length = case_when(bill_length_mm < 40 ~ "short", bill_length_mm < 50 ~ "medium", bill_length_mm >= 50 ~ "long"))

## # A tibble: 333 × 9
##    species island    bill_length_mm bill_depth_mm flipper_length_mm body_mass_g
##    <fct>   <fct>              <dbl>         <dbl>             <int>       <int>
##  1 Adelie  Torgersen           39.1          18.7               181        3750
##  2 Adelie  Torgersen           39.5          17.4               186        3800
##  3 Adelie  Torgersen           40.3          18                 195        3250
##  4 Adelie  Torgersen           36.7          19.3               193        3450
##  5 Adelie  Torgersen           39.3          20.6               190        3650
##  6 Adelie  Torgersen           38.9          17.8               181        3625
##  7 Adelie  Torgersen           39.2          19.6               195        4675
##  8 Adelie  Torgersen           41.1          17.6               182        3200
##  9 Adelie  Torgersen           38.6          21.2               191        3800
## 10 Adelie  Torgersen           34.6          21.1               198        4400
## # ℹ 323 more rows
## # ℹ 3 more variables: sex <fct>, year <int>, bill_length <chr>
…
Penguins_instrumented has 9 columns, whereas penguins_clean only at
8

instrument_meta <- tibble(
  instrument_id = c("caliper_A", "caliper_B", "caliper_C"),
  calibration_mm = c(0.2, 0.5, 1.0),
  manufacturer = c("Mitutoyo", "Fowler", "Generic")
)

penguins_instrumented <- penguins_clean %>% drop_na(bill_length_mm)
penguins_instrumented <- penguins_instrumented %>% mutate (instrument_id = case_when(year == 2007 ~ "caliper_A", year == 2008 ~ "caliper_c", year == 2009 ~ "caliper_C" ))

left_join(penguins_instrumented, instrument_meta, by = "instrument_id")

## # A tibble: 333 × 11
##    species island    bill_length_mm bill_depth_mm flipper_length_mm body_mass_g
##    <fct>   <fct>              <dbl>         <dbl>             <int>       <int>
##  1 Adelie  Torgersen           39.1          18.7               181        3750
##  2 Adelie  Torgersen           39.5          17.4               186        3800
##  3 Adelie  Torgersen           40.3          18                 195        3250
##  4 Adelie  Torgersen           36.7          19.3               193        3450
##  5 Adelie  Torgersen           39.3          20.6               190        3650
##  6 Adelie  Torgersen           38.9          17.8               181        3625
##  7 Adelie  Torgersen           39.2          19.6               195        4675
##  8 Adelie  Torgersen           41.1          17.6               182        3200
##  9 Adelie  Torgersen           38.6          21.2               191        3800
## 10 Adelie  Torgersen           34.6          21.1               198        4400
## # ℹ 323 more rows
## # ℹ 5 more variables: sex <fct>, year <int>, instrument_id <chr>,
## #   calibration_mm <dbl>, manufacturer <chr>
…
